F MAKEFILE.;1                                                                                                                                                                                                     	Makefile
F UPPER_PP.C;1                                                                                                                                                                                                    	upper_ppe.c
F UPPER_SP.C;1                                                                                                                                                                                                    	upper_spe.c
