%!PS-Adobe-3.0 EPSF-3.0
%%BoundingBox: 0 0 26 17
%%Creator: MathType
%%Title: expm1_1.eps
%%CreationDate: 08/02/07
%%DocumentFonts: Symbol
%%+ TimesNewRomanPS-ItalicMT
%%+ TimesNewRomanPSMT
%%DocumentNeededFonts: Symbol
%%+ TimesNewRomanPS-ItalicMT
%%+ TimesNewRomanPSMT
%%DocumentProcessColors: Black
%%Baseline: 3
%%Dimensions: H=0,236, W=0,361
%%EndComments
%MathType!MTEF!1!1!+-
%feaagaart1ev2aaatCvAUfeBSjuyZL2yd9gzLbvyNv2CaerbuL
%wBLnhiov2DGi1BTfMBaeXatLxBI9gBaerbd9wDYLwzYbItLDha
%rqqtubsr4rNCHbGeaGqiVGI8pfYxOqFD0xXdHaVhbbf9v8qqaq
%Fr0xc9pk0xbba9q8WqFfeaY-biLkVcLq-JHqpepeea0-as0Fb9
%pgeaYRXxe9vr0-vr0-vqpWqaaeaabiGaciaacaqabeaadaqaaq
%aaaOqaaiaadwgalmaaCaaabeqaaiaadIhaaaGaeyOeI0IaaGym
%aaaa!3A81!
%MathType!MathML!1!1!+-
%<?xmlversion="1.0"?><!--MathType@Translator@5@5@Ma
%thML2(namespaceattr).tdl@MathML2.0(namespaceattr)@
%--><mathdisplay='block'xmlns='http://www.w3.org/19
%98/Math/MathML'><semantics><mrow><msup><mi>e</mi><
%mi>x</mi></msup><mo>&#x2212;</mo><mn>1</mn></mrow>
%<annotationencoding='MathType-MTEF'></annotation><
%/semantics></math><!--MathType@End@5@5@-->!
/MTsave save def 50 dict begin
/bdef {bind def} bind def
/xdef {exch def} bdef
/rndpos { transform round exch round exch itransform } bdef
/rndvec { dtransform round exch round exch idtransform } bdef
/rnddist { 0 rndvec pop } bdef
/rndmvto { rndpos moveto } bdef
/rndlnto { rndpos lineto } bdef
64 -464 .03125 -.03125 scale translate
/fs 0 def
/sf {exch dup /fs xdef dup neg matrix scale makefont setfont} bdef
/f1 {findfont dup /cf xdef sf} bdef
/ns {cf sf} bdef
/sh {rndmvto show} bdef
0 setgray
384 /TimesNewRomanPS-ItalicMT f1
(e) -12 368 sh
256 ns
(x) 182 196 sh
256 /Symbol f1
(-) 400 368 sh
256 /TimesNewRomanPSMT f1
(1) 584 368 sh
end MTsave restore
