%!PS-Adobe-3.0 EPSF-3.0
%%BoundingBox: 0 0 29 26
%%Creator: MathType
%%Title: frexp_1.eps
%%CreationDate: 02/26/07
%%DocumentFonts: Symbol
%%+ TimesNewRomanPSMT
%%DocumentNeededFonts: Symbol
%%+ TimesNewRomanPSMT
%%DocumentProcessColors: Black
%%Baseline: 10
%%Dimensions: H=0,361, W=0,402
%%EndComments
%MathType!MTEF!1!1!+-
%feaafiart1ev1aaatCvAUfeBSjuyZL2yd9gzLbvyNv2CaerbuL
%wBLnhiov2DGi1BTfMBaeXatLxBI9gBaerbd9wDYLwzYbItLDha
%rqqtubsr4rNCHbGeaGqiVGI8pfYxOqFD0xXdHaVhbbf9v8qqaq
%Fr0xc9pk0xbba9q8WqFfeaY-biLkVcLq-JHqpepeea0-as0Fb9
%pgeaYRXxe9vr0-vr0-vqpWqaaeaabiGaciaacaqabeaadaqaaq
%aaaOqaamaajibabaWcdaWcaaqaaiaaigdaaeaacaaIYaaaaOGa
%aiilaiaaigdaaiaawUfacaGLPaaaaaa!3B9F!
/MTsave save def 50 dict begin
/bdef {bind def} bind def
/xdef {exch def} bdef
/rndpos { transform round exch round exch itransform } bdef
/rndvec { dtransform round exch round exch idtransform } bdef
/rnddist { 0 rndvec pop } bdef
/rndmvto { rndpos moveto } bdef
/rndlnto { rndpos lineto } bdef
64 -737 .03125 -.03125 scale translate
0 setgray
/thick 0 def
/th { dup setlinewidth /thick xdef } bdef
8 th 173 353 rndmvto 176 0 rlineto stroke
/fs 0 def
/sf {exch dup /fs xdef dup neg matrix scale makefont setfont} bdef
/f1 {findfont dup /cf xdef sf} bdef
/ns {cf sf} bdef
/sh {rndmvto show} bdef
256 /TimesNewRomanPSMT f1
(1) 197 227 sh
(2) 199 582 sh
384 ns
(1) 492 417 sh
384 /TimesNewRomanPSMT f1
(,) 394 417 sh
384 /Symbol f1
(\351) 0 360 sh
(\353) 0 613 sh
/f3 {findfont 3 -1 roll .001 mul 3 -1 roll .001 mul matrix scale
makefont dup /cf xdef sf} bdef
384 1000 1828 /Symbol f3
(\)) 674 489 sh
end MTsave restore
