%!PS-Adobe-3.0 EPSF-3.0
%%BoundingBox: 0 0 72 19
%%Creator: MathType
%%Title: frexp_2.eps
%%CreationDate: 02/26/07
%%DocumentFonts: Symbol
%%+ TimesNewRomanPS-ItalicMT
%%+ TimesNewRomanPSMT
%%DocumentNeededFonts: Symbol
%%+ TimesNewRomanPS-ItalicMT
%%+ TimesNewRomanPSMT
%%DocumentProcessColors: Black
%%Baseline: 5
%%Dimensions: H=0,264, W=1
%%EndComments
%MathType!MTEF!1!1!+-
%feaafiart1ev1aaatCvAUfeBSjuyZL2yd9gzLbvyNv2CaerbuL
%wBLnhiov2DGi1BTfMBaeXatLxBI9gBaerbd9wDYLwzYbItLDha
%rqqtubsr4rNCHbGeaGqiVGI8pfYxOqFD0xXdHaVhbbf9v8qqaq
%Fr0xc9pk0xbba9q8WqFfeaY-biLkVcLq-JHqpepeea0-as0Fb9
%pgeaYRXxe9vr0-vr0-vqpWqaaeaabiGaciaacaqabeaadaqaaq
%aaaOqaaiaadIhacqGH9aqpcaWGMbGaamOCaiaadggacaWGJbGa
%ey41aqRaaGOmamaaCaaaleqabaGaciyzaiaacIhacaGGWbaaaa
%aa!4253!
/MTsave save def 50 dict begin
/bdef {bind def} bind def
/xdef {exch def} bdef
/rndpos { transform round exch round exch itransform } bdef
/rndvec { dtransform round exch round exch idtransform } bdef
/rnddist { 0 rndvec pop } bdef
/rndmvto { rndpos moveto } bdef
/rndlnto { rndpos lineto } bdef
64 -527 .03125 -.03125 scale translate
/fs 0 def
/sf {exch dup /fs xdef dup neg matrix scale makefont setfont} bdef
/f1 {findfont dup /cf xdef sf} bdef
/ns {cf sf} bdef
/sh {rndmvto show} bdef
0 setgray
384 /TimesNewRomanPS-ItalicMT f1
(x) 15 367 sh
(f) 658 367 sh
(r) 764 367 sh
(a) 913 367 sh
(c) 1105 367 sh
384 /Symbol f1
(=) 283 367 sh
(\264) 1334 367 sh
384 /TimesNewRomanPSMT f1
(2) 1597 367 sh
256 /TimesNewRomanPSMT f1
(e) 1795 195 sh
(x) 1910 195 sh
(p) 2038 195 sh
end MTsave restore
