%!PS-Adobe-3.0 EPSF-3.0
%%BoundingBox: 0 0 45 20
%%Creator: MathType
%%Title: hypot_1.eps
%%CreationDate: 02/26/07
%%DocumentFonts: Symbol
%%+ TimesNewRomanPS-ItalicMT
%%+ TimesNewRomanPSMT
%%DocumentNeededFonts: Symbol
%%+ TimesNewRomanPS-ItalicMT
%%+ TimesNewRomanPSMT
%%DocumentProcessColors: Black
%%Baseline: 6
%%Dimensions: H=0,277, W=0,625
%%EndComments
%MathType!MTEF!1!1!+-
%feaafiart1ev1aaatCvAUfeBSjuyZL2yd9gzLbvyNv2CaerbuL
%wBLnhiov2DGi1BTfMBaeXatLxBI9gBaerbd9wDYLwzYbItLDha
%rqqtubsr4rNCHbGeaGqiVGI8pfYxOqFD0xXdHaVhbbf9v8qqaq
%Fr0xc9pk0xbba9q8WqFfeaY-biLkVcLq-JHqpepeea0-as0Fb9
%pgeaYRXxe9vr0-vr0-vqpWqaaeaabiGaciaacaqabeaadaqaaq
%aaaOqaamaakaaabaGaamiEamaaCaaaleqameaacaaIYaaaaOGa
%ey4kaSIaamyEamaaCaaaleqameaacaaIYaaaaaWcbeaaaaa!3BB1!
/MTsave save def 50 dict begin
/bdef {bind def} bind def
/xdef {exch def} bdef
/rndpos { transform round exch round exch itransform } bdef
/rndvec { dtransform round exch round exch idtransform } bdef
/rnddist { 0 rndvec pop } bdef
/rndmvto { rndpos moveto } bdef
/rndlnto { rndpos lineto } bdef
64 -569 .03125 -.03125 scale translate
/thick 0 def
/th { dup setlinewidth /thick xdef } bdef
/dist {
3 -1 roll sub dup mul
3 1 roll exch sub dup mul
add sqrt
} bdef
/sqr {
50 dict begin
rnddist /checkWidth exch def
rndpos /bottom exch def /right exch def
rndpos /top exch def /left exch def
/tickThick thick .7 mul def
/downThick thick 1.8 mul def
/dv bottom top sub def
/vTickStart bottom dv .330 mul sub def
/vTickEnd bottom dv .400 mul sub def
/hTickEnd left thick 2.8 mul add def
/hBottom left checkWidth .550 mul add def
/pt0h left def
/pt0v vTickStart def
/pt1h hTickEnd def
/pt1v vTickEnd def
/pt3h left checkWidth add def
/pt3v top def
/pt4h right def
/pt4v top def
/pt5h right def
/pt5v top thick add def
/pt8h hBottom def
/pt8v bottom def
/pth pt8h downThick pt8h pt8v pt1h pt1v dist mul pt8v pt1v sub div add def
/ptv pt8v def
/slope83 pt8v pt3v sub pt8h pt3h sub div def
/slope21 ptv pt1v sub pth pt1h sub div def
/pt2h slope83 pt3h mul pt3v sub pt1v add slope21 pt1h mul sub slope83 slope21 sub div def
/pt2v slope83 pt2h pt3h sub mul pt3v add def
/pt7h pt8h pt8h pt8v pt3h pt3v dist thick mul pt8v pt3v sub div add def
/pt7v pt8v def
/pt6h pt7h pt5v pt7v sub slope83 div add def
/pt6v pt5v def
/len10 pt1h pt1v pt0h pt0v dist def
/pt10h tickThick pt0v pt1v sub mul len10 div pt0h add def
/pt10v tickThick pt1h pt0h sub mul len10 div pt0v add def
/slope01 pt0v pt1v sub pt0h pt1h sub div def
/pt9h slope21 pt8h mul slope01 pt10h mul sub pt8v sub pt10v add slope21 slope01 sub div def
/pt9v pt8v slope21 pt9h pt8h sub mul add def
currentlinewidth 0 setlinewidth
newpath
pt0h pt0v moveto
pt1h pt1v lineto
pt2h pt2v lineto
pt3h pt3v lineto
pt4h pt4v lineto
pt5h pt5v lineto
pt6h pt6v lineto
pt7h pt7v lineto
pt8h pt8v lineto
pt9h pt9v lineto
pt10h pt10v lineto
fill
setlinewidth
end
} bdef
0 setgray
19 th 0 0 1286 491 230 sqr
/fs 0 def
/sf {exch dup /fs xdef dup neg matrix scale makefont setfont} bdef
/f1 {findfont dup /cf xdef sf} bdef
/ns {cf sf} bdef
/sh {rndmvto show} bdef
384 /TimesNewRomanPS-ItalicMT f1
(x) 275 377 sh
(y) 965 377 sh
128 /TimesNewRomanPSMT f1
(2) 470 205 sh
(2) 1165 205 sh
384 /Symbol f1
(+) 639 377 sh
end MTsave restore
