%!PS-Adobe-3.0 EPSF-3.0
%%BoundingBox: 0 0 38 17
%%Creator: MathType
%%Title: ldexp_1.eps
%%CreationDate: 02/26/07
%%DocumentFonts: Symbol
%%+ TimesNewRomanPS-ItalicMT
%%+ TimesNewRomanPSMT
%%DocumentNeededFonts: Symbol
%%+ TimesNewRomanPS-ItalicMT
%%+ TimesNewRomanPSMT
%%DocumentProcessColors: Black
%%Baseline: 3
%%Dimensions: H=0,236, W=0,527
%%EndComments
%MathType!MTEF!1!1!+-
%feaafiart1ev1aaatCvAUfeBSjuyZL2yd9gzLbvyNv2CaerbuL
%wBLnhiov2DGi1BTfMBaeXatLxBI9gBaerbd9wDYLwzYbItLDha
%rqqtubsr4rNCHbGeaGqiVGI8pfYxOqFD0xXdHaVhbbf9v8qqaq
%Fr0xc9pk0xbba9q8WqFfeaY-biLkVcLq-JHqpepeea0-as0Fb9
%pgeaYRXxe9vr0-vr0-vqpWqaaeaabiGaciaacaqabeaadaqaaq
%aaaOqaaiaadIhacqGHxdaTcaaIYaWcdaahaaqabeaaciGGLbGa
%aiiEaiaacchaaaaaaa!3D9D!
/MTsave save def 50 dict begin
/bdef {bind def} bind def
/xdef {exch def} bdef
/rndpos { transform round exch round exch itransform } bdef
/rndvec { dtransform round exch round exch idtransform } bdef
/rnddist { 0 rndvec pop } bdef
/rndmvto { rndpos moveto } bdef
/rndlnto { rndpos lineto } bdef
64 -463 .03125 -.03125 scale translate
/fs 0 def
/sf {exch dup /fs xdef dup neg matrix scale makefont setfont} bdef
/f1 {findfont dup /cf xdef sf} bdef
/ns {cf sf} bdef
/sh {rndmvto show} bdef
0 setgray
384 /TimesNewRomanPS-ItalicMT f1
(x) 15 367 sh
384 /Symbol f1
(\264) 248 367 sh
384 /TimesNewRomanPSMT f1
(2) 511 367 sh
256 /TimesNewRomanPSMT f1
(e) 709 195 sh
(x) 824 195 sh
(p) 952 195 sh
end MTsave restore
