%!PS-Adobe-3.0 EPSF-3.0
%%BoundingBox: 0 0 39 24
%%Creator: MathType
%%Title: rpion2.eps
%%CreationDate: 02/26/07
%%DocumentFonts: Symbol
%%+ TimesNewRomanPSMT
%%DocumentNeededFonts: Symbol
%%+ TimesNewRomanPSMT
%%DocumentProcessColors: Black
%%Baseline: 9
%%Dimensions: H=0,333, W=0,542
%%EndComments
%MathType!MTEF!1!1!+-
%feaafiart1ev1aaatCvAUfeBSjuyZL2yd9gzLbvyNv2CaerbuL
%wBLnhiov2DGi1BTfMBaeXatLxBI9gBaerbd9wDYLwzYbItLDha
%rqqtubsr4rNCHbGeaGqiVGI8pfYxOqFD0xXdHaVhbbf9v8qqaq
%Fr0xc9pk0xbba9q8WqFfea0-yr0RYxir-Jbba9q8aq0-yq-He9
%q8qqQ8frFve9Fve9Ff0dmeaabaqaciGacaGaaeqabaWaaeaaea
%aakeaadaWadaqaaSWaaSaaaeaacqGHsislcqaHapaCaeaacaaI
%YaaaaOGaaiilaSWaaSaaaeaacqaHapaCaeaacaaIYaaaaaGcca
%GLBbGaayzxaaaaaa!3F28!
/MTsave save def 50 dict begin
/bdef {bind def} bind def
/xdef {exch def} bdef
/rndpos { transform round exch round exch itransform } bdef
/rndvec { dtransform round exch round exch idtransform } bdef
/rnddist { 0 rndvec pop } bdef
/rndmvto { rndpos moveto } bdef
/rndlnto { rndpos lineto } bdef
64 -703 .03125 -.03125 scale translate
0 setgray
/thick 0 def
/th { dup setlinewidth /thick xdef } bdef
9 th 173 351 rndmvto 369 0 rlineto stroke
729 351 rndmvto 208 0 rlineto stroke
/fs 0 def
/sf {exch dup /fs xdef dup neg matrix scale makefont setfont} bdef
/f1 {findfont dup /cf xdef sf} bdef
/ns {cf sf} bdef
/sh {rndmvto show} bdef
256 /Symbol f1
(-) 200 225 sh
384 ns
(\351) 0 360 sh
(\353) 0 609 sh
(\371) 965 360 sh
(\373) 965 609 sh
/f2 {findfont matrix dup 2 .22 put makefont dup /cf xdef sf} bdef
256 /Symbol f2
(p) 342 225 sh
(p) 737 225 sh
256 /TimesNewRomanPSMT f1
(2) 295 580 sh
(2) 771 580 sh
384 /TimesNewRomanPSMT f1
(,) 587 415 sh
end MTsave restore
