F IMAGE001.JPG;1                                                                                                                                                                                                  	image001.jpg
F IMAGE002.JPG;1                                                                                                                                                                                                  	image002.jpg
F IMAGE003.JPG;1                                                                                                                                                                                                  	image003.jpg
F IMAGE004.JPG;1                                                                                                                                                                                                  	image004.jpg
F IMAGE005.JPG;1                                                                                                                                                                                                  	image005.jpg
F IMAGE006.JPG;1                                                                                                                                                                                                  	image006.jpg
F IMAGE007.JPG;1                                                                                                                                                                                                  	image007.jpg
F IMAGE008.JPG;1                                                                                                                                                                                                  	image008.jpg
F IMAGE009.JPG;1                                                                                                                                                                                                  	image009.jpg
F IMAGE010.JPG;1                                                                                                                                                                                                  	image010.jpg
F IMAGE011.JPG;1                                                                                                                                                                                                  	image011.jpg
F IMAGE012.JPG;1                                                                                                                                                                                                  	image012.jpg
F IMAGE013.JPG;1                                                                                                                                                                                                  	image013.jpg
F IMAGE014.JPG;1                                                                                                                                                                                                  	image014.jpg
F IMAGE015.JPG;1                                                                                                                                                                                                  	image015.jpg
F IMAGE016.JPG;1                                                                                                                                                                                                  	image016.jpg
F IMAGE017.JPG;1                                                                                                                                                                                                  	image017.jpg
F IMAGE018.JPG;1                                                                                                                                                                                                  	image018.jpg
F IMAGE019.JPG;1                                                                                                                                                                                                  	image019.jpg
F IMAGE020.JPG;1                                                                                                                                                                                                  	image020.jpg
F IMAGE021.JPG;1                                                                                                                                                                                                  	image021.jpg
F IMAGE022.JPG;1                                                                                                                                                                                                  	image022.jpg
F IMAGE023.JPG;1                                                                                                                                                                                                  	image023.jpg
F IMAGE024.JPG;1                                                                                                                                                                                                  	image024.jpg
F IMAGE025.JPG;1                                                                                                                                                                                                  	image025.jpg
F IMAGE026.JPG;1                                                                                                                                                                                                  	image026.jpg
F IMAGE027.JPG;1                                                                                                                                                                                                  	image027.jpg
F IMAGE028.JPG;1                                                                                                                                                                                                  	image028.jpg
F IMAGE029.JPG;1                                                                                                                                                                                                  	image029.jpg
F IMAGE030.JPG;1                                                                                                                                                                                                  	image030.jpg
F IMAGE031.JPG;1                                                                                                                                                                                                  	image031.jpg
F IMAGE032.JPG;1                                                                                                                                                                                                  	image032.jpg
F IMAGE033.JPG;1                                                                                                                                                                                                  	image033.jpg
F IMAGE034.JPG;1                                                                                                                                                                                                  	image034.jpg
F IMAGE035.JPG;1                                                                                                                                                                                                  	image035.jpg
F IMAGE036.JPG;1                                                                                                                                                                                                  	image036.jpg
F IMAGE037.JPG;1                                                                                                                                                                                                  	image037.jpg
F IMAGE038.JPG;1                                                                                                                                                                                                  	image038.jpg
F IMAGE039.JPG;1                                                                                                                                                                                                  	image039.jpg
F IMAGE040.GIF;1                                                                                                                                                                                                  	image040.gif
F IMAGE041.JPG;1                                                                                                                                                                                                  	image041.jpg
F IMAGE042.JPG;1                                                                                                                                                                                                  	image042.jpg
F IMAGE043.JPG;1                                                                                                                                                                                                  	image043.jpg
F IMAGE044.JPG;1                                                                                                                                                                                                  	image044.jpg
F IMAGE045.GIF;1                                                                                                                                                                                                  	image045.gif
F IMAGE046.GIF;1                                                                                                                                                                                                  	image046.gif
F IMAGE047.GIF;1                                                                                                                                                                                                  	image047.gif
F IMAGE048.GIF;1                                                                                                                                                                                                  	image048.gif
F IMAGE049.JPG;1                                                                                                                                                                                                  	image049.jpg
F IMAGE050.GIF;1                                                                                                                                                                                                  	image050.gif
F IMAGE051.JPG;1                                                                                                                                                                                                  	image051.jpg
F IMAGE052.JPG;1                                                                                                                                                                                                  	image052.jpg
F IMAGE053.JPG;1                                                                                                                                                                                                  	image053.jpg
F IMAGE054.JPG;1                                                                                                                                                                                                  	image054.jpg
F IMAGE055.JPG;1                                                                                                                                                                                                  	image055.jpg
F IMAGE056.JPG;1                                                                                                                                                                                                  	image056.jpg
F IMAGE057.JPG;1                                                                                                                                                                                                  	image057.jpg
F IMAGE058.JPG;1                                                                                                                                                                                                  	image058.jpg
F IMAGE059.JPG;1                                                                                                                                                                                                  	image059.jpg
F IMAGE060.JPG;1                                                                                                                                                                                                  	image060.jpg
F IMAGE061.JPG;1                                                                                                                                                                                                  	image061.jpg
F IMAGE062.JPG;1                                                                                                                                                                                                  	image062.jpg
F IMAGE063.JPG;1                                                                                                                                                                                                  	image063.jpg
F IMAGE064.JPG;1                                                                                                                                                                                                  	image064.jpg
F IMAGE065.JPG;1                                                                                                                                                                                                  	image065.jpg
F IMAGE066.JPG;1                                                                                                                                                                                                  	image066.jpg
F IMAGE067.JPG;1                                                                                                                                                                                                  	image067.jpg
F IMAGE068.JPG;1                                                                                                                                                                                                  	image068.jpg
F IMAGE069.JPG;1                                                                                                                                                                                                  	image069.jpg
