F IN.PPM;1                                                                                                                                                                                                        	in.ppm
F MAIN.C;1                                                                                                                                                                                                        	main.c
F MAKEFILE.;1                                                                                                                                                                                                     	Makefile
F QUESTION.C;1                                                                                                                                                                                                    	question3_4.c
